Detecting anomalies - a simple approach | Handkecodet
…
Let’s test our function on some sample data. Two outliers are built into the data set with 1002 points. One has the value -5, the other 20.

dataframe <- tibble::tibble(Index = 1:1002,
                            Value = c(-5, runif(1000, 5.0, 7.5), 20))

outlier_df <- detect_outliers(dataframe, "Value")
outlier_df

## # A tibble: 1,002 x 5
##    Value lower_limit upper_limit outlier Index
##    <dbl>       <dbl>       <dbl> <lgl>   <int>
##  1 -5           3.84        8.68 TRUE        1
##  2  6.08        3.84        8.68 FALSE       2
##  3  5.47        3.84        8.68 FALSE       3
##  4  6.49        3.84        8.68 FALSE       4
##  5  5.22        3.84        8.68 FALSE       5
##  6  5.66        3.84        8.68 FALSE       6
##  7  5.40        3.84        8.68 FALSE       7
##  8  6.66        3.84        8.68 FALSE       8
##  9  5.48        3.84        8.68 FALSE       9
## 10  5.81        3.84        8.68 FALSE      10
## # ... with 992 more rows
…
