…
Let’s test our function on some sample data. Two outliers are built into the data set with 1002 points. One has the value -5, the other 20.

dataframe <- tibble::tibble(Index = 1:1002,
                            Value = c(-5, runif(1000, 5.0, 7.5), 20))

outlier_df <- detect_outliers(dataframe, "Value")
outlier_df

## # A tibble: 1,002 x 5
##    Value lower_limit upper_limit outlier Index
##    <dbl>       <dbl>       <dbl> <lgl>   <int>
##  1 -5           3.82        8.73 TRUE        1
##  2  7.22        3.82        8.73 FALSE       2
##  3  7.19        3.82        8.73 FALSE       3
##  4  6.37        3.82        8.73 FALSE       4
##  5  6.07        3.82        8.73 FALSE       5
##  6  6.82        3.82        8.73 FALSE       6
##  7  5.64        3.82        8.73 FALSE       7
##  8  6.43        3.82        8.73 FALSE       8
##  9  5.28        3.82        8.73 FALSE       9
## 10  5.02        3.82        8.73 FALSE      10
## # ... with 992 more rows
…
